{
  "app-id" : "io.gitlab.leesonwai.Sums.Devel",
  "runtime" : "org.gnome.Platform",
  "runtime-version" : "master",
  "sdk" : "org.gnome.Sdk",
  "command" : "sums",
  "finish-args" : [
    "--device=dri",
    "--share=ipc",
    "--socket=fallback-x11",
    "--socket=wayland"
  ],
  "cleanup" : [
    "/include",
    "/lib/pkgconfig",
    "/man",
    "/share/doc",
    "/share/gtk-doc",
    "/share/man",
    "/share/pkgconfig",
    "*.la",
    "*.a"
  ],
  "modules" : [
    {
      "name" : "mpfr",
      "sources" : [
        {
          "type" : "archive",
          "url" : "https://ftp.gnu.org/gnu/mpfr/mpfr-4.2.1.tar.xz",
          "sha256" : "277807353a6726978996945af13e52829e3abd7a9a5b7fb2793894e18f1fcbb2"
        }
      ]
    },
    {
      "name" : "sums",
      "buildsystem" : "meson",
      "builddir" : true,
      "config-opts" : [
        "-Ddevelopment=true"
      ],
      "sources" : [
        {
          "type" : "git",
          "url" : "https://gitlab.com/leesonwai/sums.git",
          "branch" : "main"
        }
      ]
    }
  ]
}
